-----------------------------------------------------
Matrix name:     cant/cant.mtx
Matrix size:     62451 x 62451 => 2034917
-----------------------------------------------------
Is matrix:       1
Is sparse:       1
-----------------------------------------------------
Is complex:      0
Is real:         1
Is integer:      0
Is pattern only: 0
-----------------------------------------------------
Is general:      0
Is symmetric:    1
Is skewed:       0
Is hermitian:    0
-----------------------------------------------------
Matrix file name: cant/cant.mtx ... file loaded.
Expanding symmetric matrix ... done
  Total # of non-zeros is 4007383
Converting COO to CSR...done
Vector file name: cant/b.mtx ... file loaded
Executing GPU CSR SpMV ... 
  Pinned Device to Host bandwidth (GB/s): 3.680575
  Pinned Device to Host bandwidth (GB/s): 7.487300
  Pinned Device to Host bandwidth (GB/s): 7.503395
  Pinned Device to Host bandwidth (GB/s): 6.380364
  Exec time (per itr): 0.00177014 s
  Pinned Host to Device bandwidth (GB/s): 1.212829
Executing GPU ELL SpMV ... 
  Pinned Device to Host bandwidth (GB/s): 7.493820
  Pinned Device to Host bandwidth (GB/s): 7.511283
  Pinned Device to Host bandwidth (GB/s): 6.385583
  Exec time (per itr): 0.00170294 s
  Pinned Host to Device bandwidth (GB/s): 1.230513
Calculating CPU CSR SpMV ... done
2-Norm between CPU and GPU (CSR) answers: 1.768525e-10
Result file name: ./myans.mtx ... file saved
Module		Time
Load			0.909270
Convert			0.054842
CPU SpMV		0.001356
GPU Alloc		0.621958
GPU CSR SpMV	0.001793
GPU ELL SpMV	0.001724
Store			0.071153
